<?xml version="1.0" encoding="utf-8"?>
<!-- Generator: Adobe Illustrator 23.0.2, SVG Export Plug-In . SVG Version: 6.00 Build 0)  -->
<svg version="1.1" id="Layer_1" xmlns="http://www.w3.org/2000/svg" xmlns:xlink="http://www.w3.org/1999/xlink" x="0px" y="0px"
	 viewBox="0 0 180 180" style="enable-background:new 0 0 180 180;" xml:space="preserve">
<style type="text/css">
	.st0{fill:#FFFFFF;}
	.st1{fill:#030F2B;}
</style>
<path class="st0" d="M90,180L90,180c-49.71,0-90-40.29-90-90v0C0,40.29,40.29,0,90,0h0c49.71,0,90,40.29,90,90v0
	C180,139.71,139.71,180,90,180z"/>
<g>
	<g>
		<path class="st1" d="M119.03,83.86c-0.04,0-0.07,0-0.11-0.01c-0.27-0.06-0.44-0.33-0.38-0.6c0.63-2.75,1.25-5.49,1.86-8.23
			c0.46-2.04,0.09-2.88-0.56-4.42c-0.1-0.25-0.22-0.51-0.33-0.79c-0.06-0.14-0.18-0.3-0.3-0.48c-0.1-0.14-0.21-0.29-0.31-0.46
			l-2.83-0.6c-0.27-0.06-0.44-0.32-0.38-0.59c0.06-0.27,0.33-0.44,0.59-0.38l3.06,0.65c0.16,0.03,0.29,0.14,0.35,0.29
			c0.07,0.16,0.2,0.33,0.33,0.51c0.16,0.21,0.32,0.44,0.42,0.68c0.11,0.28,0.22,0.53,0.33,0.78c0.69,1.61,1.14,2.68,0.62,5.03
			c-0.61,2.74-1.23,5.48-1.86,8.23C119.47,83.71,119.26,83.86,119.03,83.86z"/>
		<path class="st1" d="M97.53,148.5c-0.7,0-1.46-0.1-2.31-0.29c-3.69-0.83-7.53-1.92-11.24-2.97c-5.71-1.62-11.62-3.29-17.36-4.15
			c-2.25-0.33-3.17-1.33-4.43-2.71l-0.2-0.22c-0.18-0.19-0.33-0.45-0.48-0.69c-0.11-0.19-0.22-0.38-0.35-0.54
			c-0.1-0.12-0.14-0.28-0.1-0.43c1.15-5.09,2.4-10.44,3.82-16.37c0.06-0.27,0.33-0.43,0.6-0.37c0.27,0.06,0.43,0.33,0.37,0.6
			c-1.4,5.83-2.63,11.11-3.77,16.13c0.1,0.14,0.2,0.3,0.29,0.46c0.12,0.2,0.24,0.41,0.35,0.52l0.2,0.22
			c1.21,1.32,1.94,2.11,3.84,2.39c5.81,0.86,11.75,2.55,17.49,4.17c3.7,1.05,7.52,2.13,11.19,2.95c3.56,0.8,5.25-0.11,6.44-3.49
			c3.95-11.27,7.69-23.89,11.43-38.58c0.07-0.27,0.34-0.43,0.61-0.36c0.27,0.07,0.43,0.34,0.36,0.61
			c-3.74,14.72-7.49,27.37-11.45,38.66C101.75,147.11,100.15,148.5,97.53,148.5z"/>
		<path class="st1" d="M65.91,118.44c-0.04,0-0.08,0-0.12-0.01c-0.27-0.07-0.43-0.34-0.37-0.6c0.7-2.9,1.41-5.8,2.12-8.69
			c0.07-0.27,0.33-0.43,0.6-0.37c0.27,0.07,0.43,0.34,0.37,0.6c-0.71,2.9-1.42,5.79-2.12,8.69
			C66.34,118.29,66.13,118.44,65.91,118.44z"/>
		<path class="st1" d="M68.73,106.92c-0.04,0-0.08,0-0.12-0.01c-0.27-0.07-0.43-0.34-0.37-0.61c1.23-4.97,2.47-9.94,3.71-14.9
			c2.39-9.55,4.86-19.43,7.18-29.08c0.51-2.12,1.59-2.79,3.74-2.33c5.16,1.11,10.42,2.27,15.7,3.44c4.29,0.95,8.59,1.9,12.88,2.83
			c0.27,0.06,0.44,0.32,0.38,0.59c-0.06,0.27-0.32,0.44-0.59,0.38c-4.29-0.93-8.59-1.88-12.88-2.83c-5.29-1.17-10.54-2.33-15.7-3.44
			c-1.6-0.35-2.17,0.01-2.55,1.59c-2.32,9.65-4.79,19.54-7.18,29.09c-1.24,4.96-2.48,9.93-3.71,14.9
			C69.16,106.77,68.95,106.92,68.73,106.92z"/>
		<path class="st1" d="M96.57,145.14c-0.51,0-1.08-0.08-1.72-0.24c-2.82-0.7-5.65-1.44-8.49-2.18c-8.1-2.11-16.47-4.3-24.88-5.57
			c-0.27-0.04-0.46-0.3-0.42-0.57c0.04-0.27,0.31-0.46,0.57-0.42c8.47,1.28,16.87,3.47,24.99,5.59c2.84,0.74,5.66,1.48,8.48,2.18
			c2.35,0.58,3.42,0.01,4.22-2.29c3.52-10.03,6.84-21.15,10.16-33.98c0.07-0.27,0.34-0.43,0.61-0.36c0.27,0.07,0.43,0.34,0.36,0.61
			c-3.32,12.86-6.65,24-10.18,34.06C99.49,144.14,98.38,145.14,96.57,145.14z"/>
		<path class="st1" d="M110.55,105.97c-0.04,0-0.08,0-0.12-0.02c-0.27-0.07-0.43-0.34-0.36-0.61c0.83-3.26,1.64-6.53,2.42-9.81
			c0.06-0.27,0.32-0.43,0.6-0.37c0.27,0.06,0.43,0.33,0.37,0.6c-0.79,3.28-1.6,6.55-2.43,9.82
			C110.97,105.82,110.77,105.97,110.55,105.97z"/>
		<path class="st1" d="M113.74,92.96c-0.04,0-0.08,0-0.12-0.01c-0.27-0.06-0.43-0.33-0.37-0.6c0.43-1.81,0.85-3.62,1.28-5.44
			c0.06-0.27,0.33-0.43,0.6-0.37c0.27,0.06,0.44,0.33,0.37,0.6c-0.42,1.81-0.85,3.63-1.28,5.44
			C114.17,92.8,113.96,92.96,113.74,92.96z"/>
		<path class="st1" d="M116.08,82.9c-0.04,0-0.07,0-0.11-0.01c-0.27-0.06-0.44-0.33-0.38-0.6c0.89-3.89,1.78-7.79,2.66-11.69
			l0.5-2.22c0.06-0.27,0.33-0.44,0.6-0.38c0.27,0.06,0.44,0.33,0.38,0.6l-0.5,2.22c-0.88,3.9-1.77,7.79-2.66,11.69
			C116.51,82.74,116.31,82.9,116.08,82.9z"/>
		<path class="st1" d="M71,107.77c-0.04,0-0.08,0-0.12-0.01c-0.27-0.07-0.43-0.34-0.36-0.61c1.23-4.91,2.48-9.82,3.74-14.72
			c2.49-9.71,5.06-19.74,7.34-29.66c0.03-0.13,0.11-0.24,0.22-0.31c0.11-0.07,0.25-0.09,0.38-0.06c9.18,2.18,18.57,4.2,27.65,6.14
			l0.99,0.21c0.27,0.06,0.44,0.32,0.38,0.59c-0.06,0.27-0.33,0.44-0.59,0.38l-0.99-0.21c-8.92-1.91-18.14-3.89-27.18-6.03
			c-2.25,9.78-4.78,19.65-7.23,29.2c-1.26,4.9-2.51,9.81-3.74,14.72C71.42,107.62,71.22,107.77,71,107.77z"/>
		<path class="st1" d="M68.07,119.84c-0.04,0-0.08,0-0.11-0.01c-0.27-0.06-0.44-0.33-0.37-0.6c0.8-3.4,1.67-7.02,2.68-11.07
			c0.07-0.27,0.33-0.43,0.61-0.36c0.27,0.07,0.43,0.34,0.36,0.61c-1.01,4.05-1.88,7.66-2.68,11.06
			C68.5,119.68,68.29,119.84,68.07,119.84z"/>
		<path class="st1" d="M98.68,137.8c-0.05,0-0.09-0.01-0.14-0.02c-10.24-2.93-21.31-5.9-32.85-7.74c-0.14-0.02-0.26-0.1-0.33-0.21
			c-0.08-0.11-0.11-0.25-0.08-0.39c0.57-2.66,1.16-5.31,1.77-7.96c0.06-0.27,0.33-0.44,0.6-0.38c0.27,0.06,0.44,0.33,0.38,0.6
			c-0.57,2.47-1.12,4.95-1.66,7.43c11.24,1.82,22.01,4.7,31.99,7.55c2.89-8.25,5.59-17.19,8.23-27.31c0.07-0.27,0.34-0.43,0.61-0.36
			c0.27,0.07,0.43,0.34,0.36,0.61c-2.69,10.33-5.44,19.43-8.41,27.83C99.08,137.67,98.89,137.8,98.68,137.8z"/>
		<path class="st1" d="M107.62,107.92c-0.04,0-0.08,0-0.12-0.02c-0.27-0.07-0.43-0.34-0.36-0.61c2.11-8.23,3.97-16.38,5.36-22.56
			c0.06-0.27,0.32-0.44,0.6-0.38c0.27,0.06,0.44,0.33,0.38,0.6c-1.39,6.19-3.25,14.34-5.37,22.59
			C108.04,107.76,107.84,107.92,107.62,107.92z"/>
		<path class="st1" d="M113.52,82.9c-0.04,0-0.07,0-0.11-0.01c-0.27-0.06-0.44-0.33-0.38-0.6c0.64-2.86,1.27-5.72,1.9-8.58
			l0.65-2.92l-2.19-0.47c-0.27-0.06-0.44-0.32-0.38-0.59c0.06-0.27,0.31-0.44,0.59-0.38l2.68,0.58c0.13,0.03,0.24,0.11,0.32,0.22
			c0.07,0.11,0.1,0.25,0.07,0.38l-0.75,3.42c-0.63,2.87-1.26,5.73-1.9,8.58C113.96,82.74,113.75,82.9,113.52,82.9z"/>
		<path class="st1" d="M88.24,140.27c-0.05,0-0.1-0.01-0.15-0.02c-5.12-1.59-9.94-2.8-14.73-3.69c-0.13-0.02-0.25-0.1-0.33-0.22
			c-0.08-0.12-0.1-0.26-0.07-0.39l0.5-2.02c0.06-0.26,0.32-0.42,0.58-0.37c4.6,0.86,9.51,2.08,15.02,3.73
			c0.13,0.04,0.24,0.13,0.3,0.25c0.06,0.12,0.07,0.26,0.03,0.39l-0.16,0.46c-0.18,0.51-0.35,1.03-0.52,1.54
			C88.64,140.13,88.45,140.27,88.24,140.27z M74.07,135.67c4.51,0.86,9.05,2,13.85,3.48c0.12-0.35,0.24-0.7,0.36-1.05
			c-5.09-1.51-9.66-2.65-13.96-3.47L74.07,135.67z"/>
	</g>
	<g>
		<path class="st1" d="M102.14,110.74c-0.53,0-1.04-0.04-1.54-0.13c-0.25-0.04-0.42-0.26-0.41-0.51c0.01-0.25,0.2-0.45,0.45-0.48
			c4.78-0.46,15.52-7.23,16.48-13.57c-2.13,0-4.28,0.06-6.37,0.13l-0.71,0.02c-0.24-0.01-0.41-0.12-0.48-0.32
			c-0.08-0.2-0.02-0.42,0.15-0.56c1.2-1,2.39-2.07,3.55-3.09c0.99-0.88,1.99-1.77,3-2.63c-1.06-1.25-2.09-2.52-3.13-3.79
			c-0.61-0.75-1.22-1.5-1.84-2.25c-0.12-0.15-0.15-0.36-0.06-0.54c0.09-0.18,0.25-0.27,0.46-0.28c1.17,0.04,2.33,0.05,3.5,0.06
			c1.92,0.02,3.9,0.04,5.85,0.17c1.5-2.06,3.16-4.45,4.33-6.98c0.07-0.16,0.22-0.26,0.39-0.29c0.18-0.02,0.34,0.04,0.45,0.18
			c0.45,0.54,0.91,1.07,1.38,1.59c0.57,0.64,1.15,1.3,1.71,1.99c3.23-4.43,6.7-10.41,3.32-14.42c-0.55,2.24-0.97,4.51-1.39,6.82
			c-0.03,0.18-0.16,0.33-0.34,0.39c-0.18,0.06-0.37,0.01-0.5-0.12c-2.76-2.71-5.95-5.15-8.47-7.01c-2.38,1.36-4.76,2.71-7.14,4.05
			l-3.12,1.76c-0.16,0.09-0.34,0.09-0.5,0c-0.15-0.09-0.25-0.25-0.25-0.43c-0.05-3.68-0.1-7.29-0.22-10.86l-0.26-0.05
			c-2.46-0.5-4.99-1.01-7.45-1.77c-0.16-0.05-0.28-0.17-0.33-0.33s-0.01-0.33,0.09-0.46c1.88-2.26,3.94-4.55,6.66-7.42
			c-1.42-3.35-2.53-6.84-3.68-11.58c-0.04-0.17,0.01-0.34,0.13-0.47c0.12-0.12,0.29-0.18,0.46-0.14c3.02,0.64,6.02,1.45,8.93,2.23
			c0.89,0.24,1.78,0.48,2.67,0.72c0.89-2.82,2.37-5.28,3.81-7.65c1.31-2.16,2.66-4.39,3.54-6.88c0.06-0.18,0.22-0.3,0.41-0.33
			c0.19-0.03,0.37,0.06,0.48,0.21c1.19,1.74,2.49,3.33,3.75,4.87c1.79,2.18,3.64,4.44,5.15,7.13c4.42,0,8.76,0.58,12.44,1.15
			c0.17,0.03,0.31,0.13,0.38,0.29c0.07,0.15,0.06,0.33-0.03,0.47c-3.01,4.79-5.47,8.47-7.92,11.88c1.07,1.16,2.08,2.39,3.06,3.58
			c0.73,0.89,1.46,1.78,2.23,2.65c0.11,0.13,0.15,0.31,0.1,0.47c-0.05,0.16-0.18,0.29-0.34,0.34c-2.48,0.71-4.56,1.23-6.49,1.63
			c3.45,7.12-1.85,14.58-5.92,19.61c3.19-1.2,6.41-2.55,10.12-4.14c0.2-0.08,0.43-0.03,0.58,0.13c0.14,0.16,0.16,0.4,0.05,0.59
			c-1.84,3.01-3.62,6.09-5.29,9.15c3.07,1.31,6.23,2.51,9.3,3.67l0.69,0.26c0.19,0.07,0.32,0.26,0.32,0.47
			c0,0.21-0.13,0.39-0.32,0.47c-2.83,1.09-5.81,2.37-9.61,4.13c1.31,3.09,2.44,5.91,3.45,8.59c0.07,0.19,0.02,0.39-0.12,0.53
			c-0.14,0.14-0.35,0.18-0.54,0.11l-2.03-0.8c-2.44-0.96-4.95-1.95-7.4-3l-0.81,0.57c-2.58,1.82-4.81,3.39-6.62,6.01
			c-0.11,0.16-0.32,0.24-0.51,0.2c-0.2-0.04-0.35-0.2-0.39-0.4c-0.36-1.87-0.96-3.72-1.54-5.52c-0.17-0.53-0.34-1.06-0.51-1.59
			C116.05,104.84,108.32,110.74,102.14,110.74z M116.8,95.04c0.29,0,0.59,0,0.88,0c0.14,0,0.27,0.06,0.36,0.16
			c0.09,0.1,0.14,0.24,0.13,0.37c-0.36,5.54-7.6,11.31-13.27,13.8c5.54-1.41,11.89-6.64,16.28-11.47c0.12-0.13,0.3-0.2,0.48-0.15
			c0.18,0.04,0.32,0.17,0.37,0.34c0.24,0.8,0.5,1.6,0.76,2.4c0.48,1.48,0.97,3,1.34,4.55c1.79-2.25,3.94-3.76,6.2-5.36l1.03-0.73
			c0.14-0.1,0.33-0.12,0.49-0.05c2.52,1.09,5.12,2.11,7.63,3.1l0.98,0.38c-0.95-2.48-2.01-5.09-3.22-7.94
			c-0.11-0.25,0-0.54,0.25-0.65c3.49-1.62,6.29-2.85,8.9-3.89c-3.08-1.16-6.25-2.37-9.32-3.7c-0.13-0.06-0.23-0.16-0.27-0.3
			c-0.05-0.13-0.03-0.28,0.03-0.4c1.52-2.79,3.12-5.58,4.77-8.34c-3.79,1.61-7.09,2.97-10.47,4.19c-0.21,0.08-0.45,0-0.58-0.18
			s-0.12-0.43,0.02-0.61c5.23-6.34,10.49-13.68,6.68-20.52c-0.08-0.14-0.08-0.31-0.02-0.45c0.07-0.14,0.2-0.25,0.36-0.28
			c1.9-0.37,3.92-0.86,6.31-1.53c-0.59-0.69-1.16-1.38-1.73-2.08c-1.05-1.28-2.14-2.61-3.3-3.83c-0.17-0.17-0.18-0.44-0.04-0.64
			c2.41-3.33,4.8-6.9,7.72-11.51c-3.48-0.52-7.5-1.02-11.57-1.02c-0.09,0-0.17,0.05-0.26,0c-0.18,0-0.35-0.1-0.44-0.26
			c-1.49-2.73-3.29-4.92-5.19-7.24c-1.09-1.33-2.2-2.69-3.26-4.16c-0.9,2.22-2.11,4.22-3.29,6.17c-1.55,2.56-3.02,4.99-3.84,7.88
			c-0.08,0.26-0.34,0.42-0.61,0.35c-1.05-0.28-2.1-0.56-3.15-0.84c-2.64-0.71-5.36-1.45-8.09-2.05c1.1,4.43,2.18,7.74,3.57,10.95
			c0.08,0.18,0.04,0.4-0.1,0.54c-2.58,2.71-4.57,4.91-6.36,7.03c2.18,0.63,4.44,1.09,6.62,1.53l0.65,0.13
			c0.23,0.05,0.39,0.24,0.4,0.47c0.12,3.45,0.18,6.91,0.23,10.44l2.38-1.35c2.47-1.4,4.95-2.8,7.41-4.21
			c0.17-0.1,0.38-0.09,0.54,0.03c2.39,1.75,5.43,4.06,8.17,6.64c0.42-2.32,0.87-4.59,1.46-6.85c0.04-0.17,0.17-0.3,0.34-0.35
			c0.17-0.05,0.35-0.01,0.48,0.11c5.71,5.23-0.6,13.71-2.98,16.91c-0.09,0.13-0.24,0.17-0.4,0.2c-0.16,0-0.3-0.07-0.4-0.2
			c-0.65-0.85-1.37-1.66-2.07-2.46c-0.3-0.34-0.6-0.68-0.9-1.02c-1.22,2.44-2.82,4.71-4.25,6.67c-0.1,0.14-0.28,0.22-0.44,0.2
			c-2.01-0.14-4.07-0.16-6.06-0.18c-0.81-0.01-1.62-0.02-2.43-0.03c0.38,0.47,0.77,0.94,1.15,1.41c1.14,1.39,2.28,2.79,3.44,4.16
			c0.09,0.1,0.13,0.23,0.12,0.37c-0.01,0.13-0.07,0.26-0.18,0.34c-1.14,0.96-2.25,1.95-3.36,2.94c-0.81,0.72-1.64,1.46-2.48,2.18
			C113.2,95.1,115.01,95.04,116.8,95.04z"/>
	</g>
	<g>
		<path class="st1" d="M39.91,124.19c-0.09,0-0.18-0.03-0.26-0.08c-0.17-0.11-0.26-0.31-0.23-0.52c0.25-1.37,0.5-2.74,0.75-4.11
			c0.4-2.24,0.81-4.55,1.27-6.83c-2.86,0.19-5.71,0.38-8.57,0.58c-0.2,0.02-0.39-0.1-0.48-0.28c-0.09-0.18-0.06-0.4,0.08-0.55
			c1.63-1.8,3.13-3.72,4.42-5.41c-3.24-1.3-6.4-2.86-9.45-4.38l-1.44-0.71c-0.19-0.09-0.3-0.3-0.27-0.52
			c0.03-0.21,0.19-0.38,0.4-0.42c1.76-0.33,3.51-0.69,5.26-1.04c1.19-0.24,2.37-0.48,3.56-0.71c-1.24-2.34-2.37-4.77-3.47-7.12
			c-1.17-2.52-2.39-5.12-3.73-7.61c-0.1-0.19-0.07-0.43,0.08-0.58c0.15-0.16,0.38-0.2,0.58-0.1c1.67,0.83,3.34,1.68,5.01,2.54
			c3.07,1.58,6.24,3.21,9.43,4.62c1.06-1.79,1.94-3.81,2.79-5.76c0.49-1.13,1-2.3,1.53-3.41c0.08-0.17,0.25-0.27,0.43-0.28
			c0.21,0,0.36,0.09,0.45,0.24c0.5,0.85,0.99,1.7,1.48,2.55c0.89,1.53,1.8,3.12,2.77,4.64c2.23-1.69,4.42-3.52,6.53-5.3
			c1.48-1.24,3-2.52,4.54-3.74c0.15-0.12,0.37-0.14,0.54-0.05c0.18,0.09,0.28,0.28,0.27,0.47c-0.08,1.32-0.15,2.64-0.22,3.97
			c-0.22,4.16-0.45,8.46-1.12,12.66c1.94,0.2,3.94,0.28,5.88,0.35l1.3,0.05c0.21,0.01,0.39,0.14,0.45,0.34
			c0.07,0.2,0,0.41-0.16,0.54c-1.67,1.37-3.43,2.65-5.13,3.89c-0.78,0.56-1.55,1.13-2.32,1.7c3.06,1.05,6.19,2.18,9.53,3.46
			c0.19,0.07,0.32,0.26,0.32,0.47s-0.13,0.39-0.33,0.47c-1.59,0.59-3.19,1.17-4.79,1.74c-1.89,0.68-3.84,1.38-5.75,2.1
			c0.14,4.49,11.89,10.35,16.32,10.93c0.25,0.03,0.43,0.24,0.43,0.49c0,0.25-0.18,0.46-0.43,0.5c-4.45,0.62-16.58-3.97-20.34-7.55
			l-1.16,1.71c-1.12,1.66-2.25,3.31-3.4,4.95c-0.1,0.15-0.28,0.23-0.46,0.21c-0.18-0.02-0.33-0.13-0.41-0.29
			c-0.55-1.25-1.04-2.53-1.51-3.77c-0.34-0.9-0.69-1.82-1.06-2.72l-0.88,0.72c-2.83,2.3-5.75,4.67-8.73,6.89
			C40.12,124.16,40.01,124.19,39.91,124.19z M42.05,111.62c0.14,0,0.28,0.06,0.38,0.17c0.1,0.12,0.14,0.28,0.11,0.43
			c-0.51,2.47-0.96,5-1.4,7.44c-0.17,0.95-0.34,1.91-0.51,2.86c2.61-1.98,5.18-4.07,7.68-6.1l1.4-1.14c0.12-0.1,0.28-0.13,0.43-0.1
			c0.15,0.04,0.28,0.14,0.34,0.29c0.48,1.12,0.91,2.26,1.33,3.37c0.36,0.96,0.73,1.94,1.14,2.9c0.97-1.39,1.92-2.79,2.88-4.2
			l1.51-2.22c0.09-0.13,0.23-0.21,0.38-0.22c0.15-0.02,0.31,0.06,0.41,0.17c2.11,2.46,9.33,5.7,14.79,7.07
			c-5.5-2.32-12.43-6.73-12.07-10.72c0.02-0.19,0.14-0.35,0.32-0.42c2.02-0.77,4.09-1.51,6.08-2.23c1.18-0.42,2.35-0.84,3.53-1.27
			c-3.19-1.2-6.19-2.28-9.14-3.27c-0.18-0.06-0.3-0.21-0.33-0.39c-0.03-0.18,0.04-0.37,0.19-0.48c1.02-0.78,2.06-1.53,3.09-2.28
			c1.34-0.97,2.71-1.97,4.04-3.02c-2.12-0.08-4.3-0.16-6.43-0.41c-0.14-0.02-0.26-0.09-0.34-0.2c-0.08-0.11-0.12-0.25-0.09-0.38
			c0.73-4.31,0.96-8.76,1.19-13.07c0.05-0.95,0.1-1.9,0.16-2.85c-1.23,1-2.45,2.02-3.64,3.02c-2.26,1.9-4.6,3.86-7.01,5.66
			c-0.11,0.08-0.25,0.12-0.39,0.09c-0.14-0.02-0.26-0.1-0.33-0.22c-1.09-1.68-2.11-3.44-3.08-5.13c-0.33-0.58-0.66-1.15-1-1.72
			c-0.38,0.83-0.75,1.68-1.11,2.52c-0.92,2.13-1.87,4.32-3.08,6.26c-0.13,0.21-0.4,0.29-0.62,0.19c-3.35-1.47-6.68-3.17-9.89-4.83
			c-1.2-0.62-2.4-1.24-3.61-1.84c1.07,2.08,2.06,4.21,3.03,6.29c1.18,2.54,2.41,5.17,3.76,7.67c0.08,0.14,0.08,0.31,0.01,0.45
			c-0.07,0.14-0.2,0.25-0.36,0.28c-1.41,0.27-2.81,0.56-4.22,0.84c-1.27,0.26-2.54,0.52-3.82,0.77l0.11,0.06
			c3.23,1.6,6.57,3.26,9.98,4.58c0.15,0.06,0.26,0.18,0.3,0.33c0.04,0.15,0.01,0.31-0.08,0.44c-1.18,1.56-2.56,3.35-4.06,5.09
			c2.67-0.18,5.34-0.36,8.01-0.54C42.03,111.62,42.04,111.62,42.05,111.62z"/>
	</g>
	<g>
		<g>
			<path class="st1" d="M89.85,83.15c-1.31,0.63-2.63,1.26-3.94,1.9c-0.8-1.42-1.63-2.83-2.41-4.26c-0.56,0.29-1.12,0.61-1.66,0.93
				c0.79,1.39,1.59,2.77,2.35,4.17c-1.29,0.63-2.64,1.14-3.93,1.77c0.27,0.59,0.54,1.18,0.82,1.76c1.39-0.53,2.8-0.99,4.18-1.54
				c0.79,1.47,1.59,2.93,2.41,4.38c0.61-0.25,1.18-0.56,1.76-0.88c-0.77-1.46-1.6-2.88-2.39-4.32c1.3-0.65,2.57-1.37,3.82-2.1
				C90.52,84.36,90.18,83.75,89.85,83.15z"/>
			<path class="st1" d="M87.44,92.89l-0.22-0.39c-0.74-1.33-1.48-2.66-2.2-4c-0.64,0.25-1.28,0.48-1.93,0.71
				c-0.62,0.22-1.23,0.44-1.84,0.67l-0.43,0.17l-0.2-0.42c-0.2-0.42-0.39-0.83-0.58-1.25l-0.44-0.96l0.44-0.21
				c0.64-0.31,1.29-0.59,1.94-0.87c0.51-0.22,1.01-0.44,1.51-0.67c-0.57-1.03-1.16-2.06-1.74-3.08l-0.6-1.05l0.42-0.25
				c0.55-0.33,1.12-0.65,1.69-0.94l0.43-0.23l0.24,0.43c0.46,0.84,0.94,1.68,1.42,2.51c0.25,0.44,0.51,0.89,0.76,1.33
				c0.75-0.36,1.5-0.72,2.25-1.08l1.69-0.81l0.33,0.59c0.3,0.55,0.6,1.09,0.9,1.64l0.23,0.43l-0.42,0.25
				c-1.24,0.72-2.3,1.33-3.38,1.88c0.2,0.36,0.41,0.73,0.61,1.09c0.52,0.92,1.04,1.85,1.54,2.79l0.23,0.44l-0.58,0.31
				c-0.53,0.29-1.08,0.58-1.66,0.82L87.44,92.89z M85.48,87.25l0.21,0.39c0.71,1.33,1.44,2.66,2.18,3.98
				c0.29-0.14,0.58-0.29,0.87-0.44c-0.42-0.78-0.86-1.55-1.29-2.33c-0.29-0.52-0.58-1.03-0.87-1.55l-0.25-0.46l0.47-0.23
				c1.09-0.55,2.16-1.14,3.37-1.84c-0.18-0.32-0.36-0.65-0.54-0.97l-0.84,0.4c-0.89,0.43-1.78,0.85-2.67,1.29L85.7,85.7l-0.23-0.41
				c-0.33-0.58-0.66-1.16-0.99-1.74c-0.4-0.7-0.8-1.39-1.19-2.1c-0.26,0.14-0.52,0.29-0.78,0.44l0.11,0.19
				c0.68,1.18,1.35,2.36,2.01,3.56l0.25,0.46l-0.47,0.23c-0.67,0.33-1.35,0.62-2.03,0.91c-0.49,0.21-0.98,0.42-1.46,0.65l0.03,0.07
				c0.13,0.28,0.25,0.55,0.38,0.83c0.47-0.18,0.95-0.35,1.43-0.52c0.77-0.28,1.55-0.55,2.31-0.85L85.48,87.25z"/>
		</g>
		<g>
			<path class="st1" d="M107.13,86.68c-1.43,0.76-3.02,1.21-4.5,1.89c-1.09-1.35-2.2-2.69-3.24-4.08c-0.62,0.3-1.21,0.65-1.81,1
				c0.93,1.45,2.09,2.72,3.18,4.05c-1.24,0.74-2.36,1.65-3.51,2.52c0.4,0.56,0.8,1.12,1.2,1.68c1.27-0.76,2.52-1.58,3.8-2.33
				c0.99,1.28,1.99,2.56,2.87,3.92c0.51-0.37,1.02-0.74,1.54-1.1c-0.82-1.29-1.69-2.55-2.58-3.79c1.38-0.7,2.8-1.26,4.12-2.07
				C107.83,87.8,107.48,87.24,107.13,86.68z"/>
			<path class="st1" d="M104.98,96.04l-0.29-0.44c-0.79-1.22-1.69-2.4-2.57-3.54c-0.56,0.34-1.12,0.68-1.67,1.03
				c-0.58,0.36-1.16,0.72-1.74,1.08l-0.4,0.24l-0.27-0.38c-0.25-0.35-0.5-0.71-0.75-1.06l-0.72-1.01l1.11-0.84
				c0.75-0.57,1.52-1.17,2.34-1.69c-0.13-0.16-0.26-0.31-0.39-0.47c-0.85-1.01-1.72-2.05-2.46-3.19l-0.28-0.44l0.7-0.41
				c0.51-0.3,1.04-0.61,1.59-0.87l0.37-0.18l0.25,0.33c0.78,1.05,1.62,2.08,2.44,3.09l0.55,0.68c0.52-0.22,1.05-0.43,1.57-0.63
				c0.86-0.33,1.74-0.67,2.54-1.09l0.41-0.22l1.58,2.51l-0.43,0.26c-0.89,0.55-1.84,0.99-2.75,1.42c-0.29,0.14-0.59,0.28-0.88,0.42
				c0.84,1.18,1.58,2.27,2.25,3.34l0.26,0.4l-0.39,0.27c-0.51,0.36-1.02,0.73-1.53,1.09L104.98,96.04z M102.37,90.75l0.27,0.35
				c0.9,1.16,1.8,2.32,2.6,3.52c0.24-0.17,0.48-0.35,0.73-0.52c-0.69-1.07-1.45-2.17-2.31-3.37l-0.34-0.47l0.52-0.26
				c0.48-0.24,0.96-0.46,1.43-0.69c0.77-0.36,1.5-0.7,2.21-1.11l-0.54-0.86c-0.73,0.36-1.5,0.65-2.24,0.93
				c-0.63,0.24-1.26,0.48-1.87,0.76l-0.35,0.16l-1.04-1.28c-0.73-0.9-1.49-1.83-2.21-2.78c-0.32,0.17-0.63,0.34-0.95,0.53
				c0.64,0.92,1.38,1.8,2.09,2.65c0.26,0.3,0.51,0.61,0.77,0.92l0.37,0.45l-0.5,0.3c-0.95,0.57-1.86,1.26-2.73,1.93l-0.34,0.26
				l0.16,0.22c0.16,0.23,0.33,0.46,0.49,0.68c0.45-0.27,0.89-0.55,1.33-0.83c0.69-0.43,1.37-0.86,2.07-1.27L102.37,90.75z"/>
		</g>
	</g>
</g>
</svg>
