<?xml version="1.0" encoding="utf-8"?>
<!-- Generator: Adobe Illustrator 23.0.2, SVG Export Plug-In . SVG Version: 6.00 Build 0)  -->
<svg version="1.1" id="Layer_1" xmlns="http://www.w3.org/2000/svg" xmlns:xlink="http://www.w3.org/1999/xlink" x="0px" y="0px"
	 viewBox="0 0 180 180" style="enable-background:new 0 0 180 180;" xml:space="preserve">
<style type="text/css">
	.st0{fill:#FFFFFF;}
	.st1{fill:#030F2B;}
</style>
<path class="st0" d="M90,180L90,180c-49.71,0-90-40.29-90-90v0C0,40.29,40.29,0,90,0h0c49.71,0,90,40.29,90,90v0
	C180,139.71,139.71,180,90,180z"/>
<g>
	<g>
		<path class="st1" d="M54.42,84.57c-4.72,0-9.41-0.94-13.77-2.78c-2.77-1.17-4.67-3.65-5.07-6.64c-0.4-2.99,0.77-5.88,3.13-7.75
			c4.96-3.91,10.92-6.43,17.22-7.28l0.07,0.5l-0.07-0.5c6.3-0.85,12.7,0,18.53,2.46c2.77,1.17,4.67,3.66,5.07,6.64
			c0.4,2.99-0.77,5.88-3.13,7.74c-4.96,3.91-10.92,6.43-17.22,7.28C57.59,84.46,56,84.57,54.42,84.57z M60.68,60.8
			c-1.54,0-3.08,0.1-4.62,0.31c-6.12,0.82-11.91,3.27-16.73,7.07c-2.08,1.64-3.12,4.2-2.76,6.83c0.35,2.63,2.03,4.82,4.47,5.85
			c5.66,2.39,11.88,3.22,18,2.4c6.12-0.82,11.91-3.27,16.73-7.07c2.08-1.64,3.12-4.19,2.76-6.83c-0.35-2.63-2.02-4.82-4.47-5.85
			C69.83,61.72,65.27,60.8,60.68,60.8z"/>
		<g>
			<path class="st1" d="M69.12,70.63c-0.86-6.39-6.74-10.87-13.13-10.01s-10.87,6.74-10.01,13.13c0.86,6.39,6.74,10.87,13.13,10.01
				C65.5,82.89,69.98,77.02,69.12,70.63z M62.72,72.51c-2.78,0.37-5.33-1.57-5.71-4.35c-0.37-2.78,1.57-5.33,4.35-5.71
				c2.78-0.37,5.33,1.57,5.71,4.35C67.44,69.58,65.49,72.14,62.72,72.51z"/>
			<path class="st1" d="M57.52,84.36c-2.65,0-5.21-0.86-7.36-2.5c-2.59-1.97-4.25-4.83-4.68-8.05c-0.9-6.65,3.79-12.79,10.44-13.69
				c3.22-0.43,6.42,0.41,9.01,2.38c2.59,1.97,4.25,4.83,4.68,8.06c0.43,3.22-0.41,6.42-2.38,9.01c-1.97,2.58-4.83,4.25-8.05,4.68
				C58.62,84.32,58.07,84.36,57.52,84.36z M57.57,61.01c-0.5,0-1.01,0.03-1.51,0.1c-6.11,0.82-10.4,6.46-9.58,12.57
				c0.4,2.96,1.92,5.58,4.3,7.39c2.37,1.81,5.31,2.58,8.27,2.19c2.96-0.4,5.58-1.92,7.39-4.3c1.81-2.37,2.59-5.31,2.19-8.27l0,0
				c-0.16-1.19-0.5-2.33-1.01-3.38c0.09,2.82-1.97,5.31-4.83,5.7c-3.05,0.41-5.86-1.73-6.27-4.78c-0.41-3.05,1.73-5.86,4.78-6.27
				c0.22-0.03,0.44-0.05,0.65-0.05C60.57,61.32,59.09,61.01,57.57,61.01z M62.04,62.91c-0.2,0-0.41,0.01-0.61,0.04
				c-2.5,0.34-4.26,2.65-3.92,5.15c0.34,2.5,2.65,4.25,5.14,3.92c2.5-0.34,4.26-2.65,3.92-5.15C66.26,64.58,64.3,62.91,62.04,62.91z
				"/>
		</g>
	</g>
	<g>
		<path class="st1" d="M123.54,84.39c-0.61,0-1.21-0.02-1.82-0.05c-6.35-0.32-12.49-2.34-17.76-5.83c-2.51-1.66-3.92-4.45-3.76-7.46
			c0.15-3.01,1.84-5.64,4.51-7.04c5.6-2.93,11.92-4.31,18.26-3.99c6.35,0.32,12.49,2.34,17.76,5.83c2.51,1.66,3.92,4.45,3.76,7.46
			s-1.84,5.64-4.51,7.04C134.92,83.01,129.27,84.39,123.54,84.39z M121.15,60.98c-5.57,0-11.05,1.34-15.97,3.92
			c-2.35,1.23-3.83,3.55-3.97,6.2c-0.14,2.65,1.1,5.11,3.32,6.58c5.12,3.39,11.09,5.35,17.26,5.67c6.16,0.31,12.3-1.02,17.75-3.88
			c2.35-1.23,3.83-3.55,3.97-6.2c0.14-2.65-1.1-5.11-3.32-6.57c-5.12-3.39-11.09-5.35-17.26-5.67l0,0
			C122.33,61,121.73,60.98,121.15,60.98z"/>
		<g>
			<g>
				<path class="st1" d="M132.65,67.93c0.02,0.24,0.05,0.48,0.04,0.72c-0.14,2.8-2.53,4.95-5.33,4.81c-2.8-0.14-4.95-2.53-4.81-5.33
					c0.14-2.8,2.53-4.95,5.33-4.81c0.53,0.03,1.02,0.16,1.49,0.33c-1.86-1.52-4.19-2.48-6.77-2.62
					c-6.44-0.33-11.93,4.62-12.25,11.06c-0.33,6.44,4.62,11.93,11.06,12.25c6.44,0.33,11.93-4.62,12.25-11.06
					C133.76,71.38,133.39,69.56,132.65,67.93z"/>
				<path class="st1" d="M122.02,84.87c-0.21,0-0.42,0-0.64-0.02c-3.25-0.17-6.24-1.59-8.41-4c-2.18-2.41-3.29-5.53-3.12-8.78
					c0.34-6.7,6.09-11.88,12.78-11.54c2.59,0.13,5.03,1.08,7.06,2.73c0.19,0.15,0.24,0.42,0.12,0.64c-0.12,0.21-0.38,0.31-0.61,0.22
					c-0.5-0.18-0.92-0.28-1.34-0.3c-2.5-0.11-4.67,1.82-4.8,4.34s1.82,4.67,4.33,4.8c1.22,0.06,2.39-0.35,3.3-1.17
					c0.91-0.82,1.44-1.94,1.5-3.16c0.01-0.2-0.01-0.39-0.03-0.58c-0.02-0.24,0.13-0.5,0.37-0.57c0.23-0.06,0.48,0.02,0.58,0.24
					c0.8,1.78,1.15,3.66,1.05,5.59c-0.17,3.25-1.59,6.24-4,8.41C127.91,83.76,125.04,84.87,122.02,84.87z M122,61.52
					c-5.9,0-10.85,4.64-11.15,10.6c-0.15,2.98,0.86,5.84,2.86,8.06c2,2.21,4.74,3.52,7.72,3.67c2.99,0.14,5.84-0.87,8.06-2.86
					c2.22-2,3.52-4.74,3.67-7.72c0.05-1.04-0.04-2.06-0.27-3.06c-0.3,0.89-0.83,1.68-1.54,2.33c-1.11,1-2.53,1.5-4.02,1.43
					c-3.07-0.16-5.44-2.78-5.28-5.85c0.15-2.84,2.41-5.09,5.19-5.28c-1.43-0.77-3.01-1.21-4.66-1.29
					C122.39,61.52,122.19,61.52,122,61.52z"/>
			</g>
		</g>
	</g>
	<path class="st1" d="M122.35,107.7c-3.02,0-5.58-2.32-5.89-5.31c-0.03-0.09-0.04-0.19-0.02-0.28c-0.01-0.12-0.01-0.23-0.01-0.33
		c0-0.71,0.12-1.4,0.37-2.05c0.19-0.51,0.35-0.87,0.49-1.17c1.17-2.38,2.08-4.57,2.77-6.69l1.82-5.61c0.13-0.41,0.82-0.41,0.95,0
		l1.53,4.73c0.86,2.66,1.8,4.98,2.87,7.1c0.22,0.43,0.4,0.91,0.68,1.65c0.25,0.66,0.37,1.35,0.37,2.06c0,0.11-0.01,0.22-0.01,0.33
		c0.03,0.11,0.02,0.21-0.02,0.31C127.91,105.4,125.35,107.7,122.35,107.7z M117.43,102.15c0,0.01,0,0.02,0,0.03
		c0.21,2.53,2.36,4.52,4.91,4.52s4.7-1.98,4.91-4.52c0-0.01,0-0.02,0-0.03c0-0.01,0-0.02,0-0.03l0-0.04
		c0.01-0.1,0.02-0.21,0.02-0.31c0-0.59-0.1-1.16-0.31-1.71c-0.3-0.8-0.45-1.2-0.63-1.54c-1.09-2.16-2.05-4.53-2.93-7.24l-1.06-3.26
		L121,92.16c-0.7,2.17-1.63,4.4-2.82,6.83c-0.14,0.28-0.28,0.61-0.45,1.08c-0.2,0.54-0.31,1.12-0.31,1.71
		c0,0.11,0.01,0.21,0.02,0.31C117.43,102.11,117.43,102.13,117.43,102.15z"/>
	<path class="st1" d="M122.35,131.05c-3.02,0-5.58-2.32-5.89-5.31c-0.03-0.09-0.04-0.19-0.02-0.28c-0.01-0.12-0.01-0.23-0.01-0.33
		c0-0.71,0.12-1.4,0.37-2.06c0.19-0.51,0.35-0.87,0.49-1.17c1.17-2.38,2.08-4.57,2.77-6.69l1.82-5.61c0.13-0.41,0.82-0.41,0.95,0
		l1.53,4.73c0.86,2.66,1.8,4.99,2.87,7.1c0.22,0.43,0.4,0.91,0.68,1.65c0.25,0.66,0.37,1.35,0.37,2.06c0,0.11-0.01,0.22-0.01,0.33
		c0.03,0.11,0.02,0.21-0.02,0.31C127.91,128.74,125.35,131.05,122.35,131.05z M117.43,125.5c0,0.01,0,0.02,0,0.03
		c0.21,2.53,2.36,4.52,4.91,4.52s4.7-1.98,4.91-4.52c0-0.01,0-0.02,0-0.03c0-0.01,0-0.02,0-0.03l0-0.04
		c0.01-0.1,0.02-0.21,0.02-0.31c0-0.59-0.1-1.16-0.31-1.71c-0.3-0.8-0.45-1.2-0.63-1.55c-1.09-2.16-2.05-4.53-2.93-7.24l-1.06-3.26
		l-1.35,4.15c-0.7,2.17-1.63,4.4-2.82,6.83c-0.14,0.28-0.28,0.61-0.45,1.08c-0.2,0.55-0.31,1.12-0.31,1.71
		c0,0.11,0.01,0.21,0.02,0.31C117.43,125.45,117.43,125.48,117.43,125.5z"/>
</g>
</svg>
